{
    "inspections": [
        "Inspections",
        "Equipment"
    ],
    "Inspections": {
        "title": "PIMM&trade; Shift Performance Summary",
        "headerTitles": [
            {
                "cspan": 2,
                "title": "Daypart 1"
            },
            {
                "cspan": 2,
                "title": "Daypart 2"
            },
            {
                "cspan": 2,
                "title": "Daypart 3"
            },
            {
                "cspan": 2,
                "title": "Daypart 4"
            },
            {
                "cspan": 2,
                "title": "Daypart 5"
            },
            {
                "cspan": 2,
                "title": "Daypart 6"
            }
        ],
        "headers": [
            "Food Safety",
            "Checklist",
            "Food Safety",
            "Checklist",
            "Food Safety",
            "Checklist",
            "Food Safety",
            "Checklist",
            "Food Safety",
            "Checklist",
            "Food Safety",
            "Checklist"
        ]
    },

    "Equipment": {
        "title": "PIMM&trade; Shift Performance Summary",
        "headerTitles": [
            {
                "cspan": 2,
                "title": "Daypart 1"
            },
            {
                "cspan": 2,
                "title": "Daypart 2"
            },
            {
                "cspan": 2,
                "title": "Daypart 3"
            },
            {
                "cspan": 2,
                "title": "Daypart 4"
            },
            {
                "cspan": 2,
                "title": "Daypart 5"
            },
            {
                "cspan": 2,
                "title": "Daypart 6"
            }
        ],
        "headers": [
            "Bluetooth",
            "Equipment",
            "Bluetooth",
            "Equipment",
            "Bluetooth",
            "Equipment",
            "Bluetooth",
            "Equipment",
            "Bluetooth",
            "Equipment",
            "Bluetooth",
            "Equipment"
        ]
    }
}
